[gd_scene load_steps=4 format=2]

[ext_resource path="res://Prefabs/Pawns/BoPawn.tscn" type="PackedScene" id=1]
[ext_resource path="res://src/Terrain/Terrain.cs" type="Script" id=2]
[ext_resource path="res://res_temp/blue_mat.tres" type="Material" id=3]

[node name="Scene_Gameplay" type="Node2D"]

[node name="BoPawn" parent="." instance=ExtResource( 1 )]
position = Vector2( -2834, -91 )

[node name="Normal Geometry" type="StaticBody2D" parent="."]
show_behind_parent = true
material = ExtResource( 3 )
z_index = -60
script = ExtResource( 2 )
platform_color = Color( 0.188235, 0.694118, 0.219608, 1 )

[node name="CollisionPolygon2D3" type="CollisionPolygon2D" parent="Normal Geometry"]
polygon = PoolVector2Array( -1285, 27, -1374, -23, -1480, -53, -1700, -113, -1754, 188, -1401, 201 )

[node name="CollisionPolygon2D2" type="CollisionPolygon2D" parent="Normal Geometry"]
polygon = PoolVector2Array( -2728, 151, -2722, -20, -2527, -39, -2277, -107, -2316, 179 )

[node name="CollisionPolygon2D" type="CollisionPolygon2D" parent="Normal Geometry"]
polygon = PoolVector2Array( -3041, -29, -2540, -26, -2216, 158, -1965, 187, -1635, 98, -1440, -35, -1136, -35, -1120, -1213, -1051, -1204, -1028, 1130, -3111, 1127, -3162, -1232, -3041, -1175 )

[node name="Ice Geometry" type="StaticBody2D" parent="."]
script = ExtResource( 2 )
ground_friction = 0.2
platform_color = Color( 0.776471, 0.941176, 0.952941, 1 )
footstep_sfx = "SNOW"

[node name="CollisionPolygon2D" type="CollisionPolygon2D" parent="Ice Geometry"]
polygon = PoolVector2Array( -2307, 106, -2191, 128, -1900, 140, -1741, 123, -1751, 170, -2009, 198, -2321, 160 )
