; Engine configuration file.
; It's best edited using the editor UI and not directly,
; since the parameters that go here are not all obvious.
;
; Format:
;   [section] ; section goes between []
;   param=value ; assign values to parameters

config_version=4

_global_script_classes=[ {
"base": "",
"class": "GitAPI",
"language": "NativeScript",
"path": "res://git_api.gdns"
} ]
_global_script_class_icons={
"GitAPI": ""
}

[application]

config/name="Bo"
run/main_scene="res://foo.tscn"
config/icon="res://icon.png"

[display]

window/size/width=1280
window/size/height=720
window/stretch/mode="2d"
window/stretch/aspect="keep"
window/stretch/shrink=2.0

[editor_plugins]

enabled=PoolStringArray(  )

[gdnative]

singletons=[ "res://git_api.gdnlib" ]

[input]

ui_accept={
"deadzone": 0.5,
"events": [  ]
}
ui_select={
"deadzone": 0.5,
"events": [  ]
}
ui_cancel={
"deadzone": 0.5,
"events": [  ]
}
ui_focus_next={
"deadzone": 0.5,
"events": [  ]
}
ui_focus_prev={
"deadzone": 0.5,
"events": [  ]
}
ui_left={
"deadzone": 0.5,
"events": [  ]
}
ui_right={
"deadzone": 0.5,
"events": [  ]
}
ui_up={
"deadzone": 0.5,
"events": [  ]
}
ui_down={
"deadzone": 0.5,
"events": [  ]
}
ui_page_up={
"deadzone": 0.5,
"events": [  ]
}
ui_page_down={
"deadzone": 0.5,
"events": [  ]
}
ui_home={
"deadzone": 0.5,
"events": [  ]
}
ui_end={
"deadzone": 0.5,
"events": [  ]
}
bo_jump={
"deadzone": 0.4,
"events": [ Object(InputEventKey,"resource_local_to_scene":false,"resource_name":"","device":0,"alt":false,"shift":false,"control":false,"meta":false,"command":false,"pressed":false,"scancode":87,"physical_scancode":0,"unicode":0,"echo":false,"script":null)
, Object(InputEventKey,"resource_local_to_scene":false,"resource_name":"","device":0,"alt":false,"shift":false,"control":false,"meta":false,"command":false,"pressed":false,"scancode":32,"physical_scancode":0,"unicode":0,"echo":false,"script":null)
, Object(InputEventJoypadButton,"resource_local_to_scene":false,"resource_name":"","device":0,"button_index":0,"pressure":0.0,"pressed":false,"script":null)
, Object(InputEventJoypadMotion,"resource_local_to_scene":false,"resource_name":"","device":0,"axis":6,"axis_value":1.0,"script":null)
 ]
}
bo_roll={
"deadzone": 0.4,
"events": [ Object(InputEventKey,"resource_local_to_scene":false,"resource_name":"","device":0,"alt":false,"shift":false,"control":false,"meta":false,"command":false,"pressed":false,"scancode":81,"physical_scancode":0,"unicode":0,"echo":false,"script":null)
, Object(InputEventKey,"resource_local_to_scene":false,"resource_name":"","device":0,"alt":false,"shift":false,"control":false,"meta":false,"command":false,"pressed":false,"scancode":83,"physical_scancode":0,"unicode":0,"echo":false,"script":null)
, Object(InputEventJoypadButton,"resource_local_to_scene":false,"resource_name":"","device":0,"button_index":2,"pressure":0.0,"pressed":false,"script":null)
, Object(InputEventJoypadMotion,"resource_local_to_scene":false,"resource_name":"","device":0,"axis":7,"axis_value":1.0,"script":null)
 ]
}
bo_talk={
"deadzone": 0.5,
"events": [ Object(InputEventKey,"resource_local_to_scene":false,"resource_name":"","device":0,"alt":false,"shift":false,"control":false,"meta":false,"command":false,"pressed":false,"scancode":69,"physical_scancode":0,"unicode":0,"echo":false,"script":null)
, Object(InputEventJoypadButton,"resource_local_to_scene":false,"resource_name":"","device":0,"button_index":1,"pressure":0.0,"pressed":false,"script":null)
 ]
}
bo_move_left={
"deadzone": 0.2,
"events": [ Object(InputEventKey,"resource_local_to_scene":false,"resource_name":"","device":0,"alt":false,"shift":false,"control":false,"meta":false,"command":false,"pressed":false,"scancode":65,"physical_scancode":0,"unicode":0,"echo":false,"script":null)
, Object(InputEventJoypadButton,"resource_local_to_scene":false,"resource_name":"","device":0,"button_index":14,"pressure":0.0,"pressed":false,"script":null)
, Object(InputEventJoypadMotion,"resource_local_to_scene":false,"resource_name":"","device":0,"axis":0,"axis_value":-1.0,"script":null)
, Object(InputEventJoypadMotion,"resource_local_to_scene":false,"resource_name":"","device":0,"axis":2,"axis_value":-1.0,"script":null)
 ]
}
bo_move_right={
"deadzone": 0.5,
"events": [ Object(InputEventKey,"resource_local_to_scene":false,"resource_name":"","device":0,"alt":false,"shift":false,"control":false,"meta":false,"command":false,"pressed":false,"scancode":68,"physical_scancode":0,"unicode":0,"echo":false,"script":null)
, Object(InputEventJoypadButton,"resource_local_to_scene":false,"resource_name":"","device":0,"button_index":15,"pressure":0.0,"pressed":false,"script":null)
, Object(InputEventJoypadMotion,"resource_local_to_scene":false,"resource_name":"","device":0,"axis":0,"axis_value":1.0,"script":null)
, Object(InputEventJoypadMotion,"resource_local_to_scene":false,"resource_name":"","device":0,"axis":2,"axis_value":1.0,"script":null)
 ]
}

[physics]

common/enable_pause_aware_picking=true

[rendering]

quality/driver/fallback_to_gles2=true
quality/intended_usage/framebuffer_allocation=0
quality/intended_usage/framebuffer_allocation.mobile=0
environment/default_environment="res://default_env.tres"
